[
    {
        "id": 1,
        "categoria": "Animal",
        "nombre": "Leon",
        "descripcion": "Es un animal salvaje"
    },
    {
        "id": 2,
        "categoria": "Fruta",
        "nombre": "Mango",
        "descripcion": "Fruta color amarillo"
    },
    {
        "id": 3,
        "categoria": "Ciudad",
        "nombre": "Medellin",
        "descripcion": "Capital de Antioquia"
    },
    {
        "id": 1,
        "categoria": "Animal",
        "nombre": "Perro",
        "descripcion": "Mejor amigo del hombre"
    }
]